<svg width="48" height="48" viewBox="0 0 48 48" fill="none" xmlns="http://www.w3.org/2000/svg">
<path d="M43.4544 27.7274C41.355 34.7662 33.4415 40 24 40C14.5585 40 6.64501 34.7662 4.54558 27.7274C3.05556 27.1455 2 25.696 2 24C2 22.304 3.05556 20.8545 4.54558 20.2726C6.64501 13.2338 14.5585 8 24 8C33.4415 8 41.355 13.2338 43.4544 20.2726C44.9444 20.8545 46 22.304 46 24C46 25.696 44.9444 27.1455 43.4544 27.7274Z" fill="url(#paint0_radial)"/>
<path d="M18 39.2675V8.73248C19.8941 8.25657 21.9096 8 24 8C26.0904 8 28.1059 8.25657 30 8.73248V39.2675C28.1059 39.7434 26.0904 40 24 40C21.9096 40 19.8941 39.7434 18 39.2675Z" fill="white" fill-opacity="0.8"/>
<path d="M14 37.8595V10.1405C14.3276 9.9889 14.661 9.84452 15 9.70764V38.2923C14.661 38.1554 14.3276 38.0111 14 37.8595Z" fill="black" fill-opacity="0.1"/>
<path d="M32 38.6686V9.3313C32.3383 9.44955 32.6718 9.57508 33 9.70763V38.2923C32.6718 38.4248 32.3383 38.5504 32 38.6686Z" fill="black" fill-opacity="0.1"/>
<path d="M36 36.8012V11.1989C36.342 11.4044 36.6755 11.6184 37 11.8407V36.1594C36.6755 36.3816 36.342 36.5957 36 36.8012Z" fill="black" fill-opacity="0.1"/>
<path fill-rule="evenodd" clip-rule="evenodd" d="M18 8.73254C15.8145 9.28168 13.7907 10.1229 12 11.1989V36.8012C13.7907 37.8773 15.8145 38.7184 18 39.2676V8.73254ZM14 37.0001H16V35.0001H14V37.0001ZM16 31.0001V33.0001H14V31.0001H16ZM14 29.0001H16V27.0001H14V29.0001ZM16 23.0001V25.0001H14V23.0001H16ZM16 19.0001V21.0001H14V19.0001H16ZM14 17.0001H16V15.0001H14V17.0001ZM16 11.0001V13.0001H14V11.0001H16Z" fill="white"/>
<path fill-rule="evenodd" clip-rule="evenodd" d="M36 11.1989C34.2093 10.1229 32.1855 9.28168 30 8.73254V39.2676C32.1855 38.7184 34.2093 37.8773 36 36.8012V11.1989ZM32 37.0001H34V35.0001H32V37.0001ZM34 31.0001V33.0001H32V31.0001H34ZM32 29.0001H34V27.0001H32V29.0001ZM34 23.0001V25.0001H32V23.0001H34ZM34 19.0001V21.0001H32V19.0001H34ZM32 17.0001H34V15.0001H32V17.0001ZM34 11.0001V13.0001H32V11.0001H34Z" fill="white"/>
<path d="M24 39C33.4415 39 41.355 33.7662 43.4544 26.7274C44.7957 26.2036 45.7849 24.9768 45.9691 23.5C45.9895 23.6638 46 23.8307 46 24C46 25.696 44.9444 27.1455 43.4544 27.7274C41.355 34.7662 33.4415 40 24 40C14.5585 40 6.64501 34.7662 4.54558 27.7274C3.05556 27.1455 2 25.696 2 24C2 23.8307 2.01052 23.6638 2.03095 23.5C2.2151 24.9768 3.20433 26.2036 4.54558 26.7274C6.64501 33.7662 14.5585 39 24 39Z" fill="black" fill-opacity="0.2"/>
<defs>
<radialGradient id="paint0_radial" cx="0" cy="0" r="1" gradientUnits="userSpaceOnUse" gradientTransform="translate(16.5 11.5) rotate(62.0205) scale(36.2353 49.8236)">
<stop stop-color="#FFE247"/>
<stop offset="0.328125" stop-color="#F7DB43"/>
<stop offset="0.927083" stop-color="#7C6E0D"/>
</radialGradient>
</defs>
</svg>
